{
  "type": "service_account",
  "project_id": "bioskop-c2793",
  "private_key_id": "2d9d91cb4ae8a054757138108412bc639e6a9958",
  "private_key": "-----BEGIN PRIVATE KEY-----\nMIIEvQIBADANBgkqhkiG9w0BAQEFAASCBKcwggSjAgEAAoIBAQCv0d4JjzQyYoo8\nA71SbImhjtaMBvCFa+eLha8GzDSb1g+zJyFMQMUNvwQPdkiLY361TMh+rSIMjaqE\nPBxJL5cturN66KQhXnzPbaDisYuwxbH3HWn6B0NKJXDzY+0kmDfwpIkduYKpOoJJ\nGCdYqwpbKxURTsR+L6sZ27KsVbeBUCMz3IymP6Q9Pp7LBG7fWKlwrHAH7ZSWEU6W\nDuyfRNDW336++hi/i8V8xD5OCI8tKkrLdO5gnlnXorZNAD6iIB6oRWX9gyClivVQ\nFL1wbXEGg7mA1nYjjED+kyMaH3CDfY5nBOtnNel+0XKHf9d3WEBFUb+nnibN7fX6\nDfQ3095vAgMBAAECggEADznaBDLqHsjo1ryuKxKqMpsHmnXJY4yOL0eC+lA56Br4\nHhgv6oYbao7Vv68LJkMWCIZfQJUmwzaLg0sfWfksmvG1tFmsSRWBMod4bNlaUxMz\nz8Y01MnHOocWioVnVol2IrllBHV5ysT93m2gjq21RmLrPqX3H0RqiWE8zm7X5vNQ\nQYm8fiVQlMDC8z+1zxeohCjNvjyjmq5ExN5XP6QvMRpVUXsN/42baEt1ZRa4EIFg\n6jsyMVwGv1nprHWWij7FmuB5M8WYIAz/zyRQ4ohoRmk4lEQpPEa7ILvoDLhI3QKs\n+T1CTUnpiicVvnkGyzrtSaskmy5k9s2vIJ2n1v2lwQKBgQDq27bm1MZS0nGGZxoc\nlFEVifB/8iTvu9QIJCSguKypV2X4esWqajn29Uo3DGgIBukKVtXTn+4YB/KY0Llu\nOPOGQqu71AXUxnjvq1GIHwAXeaJIZQJG4Pb+KNB0iTUfYmLoU7csufUbcgD/YAUf\n+LdUCgn5mvA/UHXbkPt7SGP5wQKBgQC/pZ4DGmWNInsD9OykThNkAb0Akc73Ssjy\n22nfvKvT/lWrK/GEVxi0QmFNNsBX6cUlUboU1130wMAmOCHIL71wHEEM0hr9/TIZ\nTbO2jdVrGtRzop4luRQU1At+NOI3c1p5g6zZbC2HnSX5yyKFr5TVYYiUK4gqmWIY\nL8wQThIELwKBgGZBH1NFVMv+oDr6bN4AnYUZN8MdNIPEbb7VrbTkcxiP2u/i1Gks\nMuyZQ6TQHANSrug3goXPXiTMYQ2z4uhgl3bfVFJFL/zCJSmEl80CYlHWPZfzkpg1\nnpRuRMRYcO6nMZUhzeEFXfiDHHgT4GdZLMjETi+FDBElAQuGBlhY3l6BAoGAC3RN\nnmfce/P8oD7qSeO0uvxznG4ajaM1oXZFvK6dIn2IB0QIGl3ORy/UevXzxw1c0B8z\nXP2GSxOeKGqgckOQMfwuUyLXpCiW7vY68IVHpTAkVIj6pMyMC7akvTVR8/h8Btk8\n4n3ZtspIs8ZVWOImph4/OIPljo4+U62/p5XS89cCgYEAjeYJ8KgX7i+5780am0gM\nFx36hnK2t6Tvdt9G9bubpaX8dbXP8aCBICAv48potUJp4UfyIa216pBB+rD1V3A4\nFNQaCArAOnqKoxnQhtn8jXOLdpxR9AoSUVb6iE6crHP2fL0grDl5grBC6hbZKB1v\nEWylxGtS7IHAuEw6AffJLf4=\n-----END PRIVATE KEY-----\n",
  "client_email": "firebase-adminsdk-cfbvw@bioskop-c2793.iam.gserviceaccount.com",
  "client_id": "101911379569093184779",
  "auth_uri": "https://accounts.google.com/o/oauth2/auth",
  "token_uri": "https://oauth2.googleapis.com/token",
  "auth_provider_x509_cert_url": "https://www.googleapis.com/oauth2/v1/certs",
  "client_x509_cert_url": "https://www.googleapis.com/robot/v1/metadata/x509/firebase-adminsdk-cfbvw%40bioskop-c2793.iam.gserviceaccount.com",
  "universe_domain": "googleapis.com"
}
